{
  "project_info": {
    "project_number": "230261660782",
    "firebase_url": "https://travelink-27ecc.firebaseio.com",
    "project_id": "travelink-27ecc",
    "storage_bucket": "travelink-27ecc.appspot.com"
  },
  "client": [
    {
      "client_info": {
        "mobilesdk_app_id": "1:230261660782:android:f1b581cfb93d1c21",
        "android_client_info": {
          "package_name": "com.yusril.travelink"
        }
      },
      "oauth_client": [
        {
          "client_id": "230261660782-hduhp0hfdhof4vr6ag3h1n0mp5pmpoif.apps.googleusercontent.com",
          "client_type": 1,
          "android_info": {
            "package_name": "com.yusril.travelink",
            "certificate_hash": "f7a8141ff2d8057866222a7324c47b8aaf9f3a5a"
          }
        }
      ],
      "api_key": [
        {
          "current_key": "AIzaSyBsCDQLioplooKV_C5HHhhGveooMHPhoYQ"
        }
      ],
      "services": {
        "appinvite_service": {
          "other_platform_oauth_client": [
            {
              "client_id": "230261660782-tcikcvburt3ghe31q5ectbf5qs0u4upq.apps.googleusercontent.com",
              "client_type": 3
            }
          ]
        }
      }
    }
  ],
  "configuration_version": "1"
}